[gd_scene load_steps=4 format=2]

[ext_resource path="res://Actors/Enemy/Spit.cs" type="Script" id=1]
[ext_resource path="res://Actors/Enemy/Art/enemy_spit12.v1__wavy_.png" type="Texture" id=2]

[sub_resource type="CapsuleShape2D" id=1]
radius = 40.5
height = 39.2655

[node name="Spit" type="Area2D"]
scale = Vector2( 0.2, 0.2 )
collision_layer = 4
script = ExtResource( 1 )
_speed = 2000

[node name="Sprite" type="Sprite" parent="."]
position = Vector2( -98, 0 )
scale = Vector2( 0.5, 0.5 )
texture = ExtResource( 2 )

[node name="CollisionShape2D" type="CollisionShape2D" parent="."]
rotation = 1.5708
shape = SubResource( 1 )

[node name="Timer" type="Timer" parent="."]
wait_time = 10.0

[connection signal="body_entered" from="." to="." method="OnSpitBodyEntered"]
[connection signal="timeout" from="Timer" to="." method="OnTimerTimeout"]
