[gd_scene load_steps=8 format=2]

[ext_resource path="res://Props/Powerup/Sprites/chicken_leg_v1.png" type="Texture" id=1]
[ext_resource path="res://Props/Powerup/PowerUp.cs" type="Script" id=2]
[ext_resource path="res://Props/Powerup/Anim/PowerupDie.tres" type="Animation" id=3]
[ext_resource path="res://Systems/AudioManager/AudioData.tscn" type="PackedScene" id=4]
[ext_resource path="res://Props/Powerup/Sounds/Health.wav" type="AudioStream" id=5]

[sub_resource type="Animation" id=1]
resource_name = "Active"
length = 0.7
loop = true
tracks/0/type = "value"
tracks/0/path = NodePath("SpriteCnt/Sprite:scale")
tracks/0/interp = 1
tracks/0/loop_wrap = true
tracks/0/imported = false
tracks/0/enabled = true
tracks/0/keys = {
"times": PoolRealArray( 0, 0.3, 0.7 ),
"transitions": PoolRealArray( 4, 0.5, 1 ),
"update": 0,
"values": [ Vector2( 0.3, 0.3 ), Vector2( 0.4, 0.4 ), Vector2( 0.3, 0.3 ) ]
}

[sub_resource type="CircleShape2D" id=2]
radius = 95.5778

[node name="PowerUpHealth" type="Area2D"]
script = ExtResource( 2 )

[node name="SpriteCnt" type="Node2D" parent="."]

[node name="Sprite" type="Sprite" parent="SpriteCnt"]
scale = Vector2( 0.4, 0.4 )
texture = ExtResource( 1 )

[node name="Anim" type="AnimationPlayer" parent="."]
autoplay = "Active"
anims/Active = SubResource( 1 )
anims/Die = ExtResource( 3 )

[node name="CollisionShape2D" type="CollisionShape2D" parent="."]
shape = SubResource( 2 )

[node name="AudioData" parent="." instance=ExtResource( 4 )]
Streams = [ ExtResource( 5 ) ]
SoundParent = NodePath("..")

[connection signal="body_entered" from="." to="." method="OnPowerUpBodyEntered"]
