[gd_scene load_steps=3 format=2]

[ext_resource path="res://Stages/MainMenu/bg/test1.png" type="Texture" id=1]
[ext_resource path="res://Actors/Player/Light2.png" type="Texture" id=2]

[node name="BackgroundImageWithLight" type="Control"]
anchor_right = 1.0
anchor_bottom = 1.0
__meta__ = {
"_edit_use_anchors_": false
}

[node name="TextureRect" type="TextureRect" parent="."]
margin_right = 1920.0
margin_bottom = 1080.0
texture = ExtResource( 1 )
expand = true

[node name="CanvasModulate2" type="CanvasModulate" parent="."]
color = Color( 0.235294, 0.235294, 0.235294, 1 )

[node name="Light2D" type="Light2D" parent="."]
position = Vector2( 960, 396.325 )
texture = ExtResource( 2 )
texture_scale = 3.0
energy = 1.1
mode = 2
