[gd_scene load_steps=8 format=2]

[ext_resource path="res://Props/Checkpoint/checkpoint_v1.png" type="Texture" id=1]
[ext_resource path="res://Props/Checkpoint/Checkpoint.cs" type="Script" id=2]
[ext_resource path="res://Systems/AudioManager/AudioData.tscn" type="PackedScene" id=3]
[ext_resource path="res://Props/Checkpoint/Sounds/Checkpoint.wav" type="AudioStream" id=4]

[sub_resource type="CapsuleShape2D" id=1]
radius = 90.217
height = 198.76

[sub_resource type="Animation" id=2]
resource_name = "Activated"
tracks/0/type = "value"
tracks/0/path = NodePath("Sprite:position")
tracks/0/interp = 1
tracks/0/loop_wrap = true
tracks/0/imported = false
tracks/0/enabled = false
tracks/0/keys = {
"times": PoolRealArray( 0, 0.1, 0.2, 0.3, 0.4 ),
"transitions": PoolRealArray( 1, 1, 1, 1, 1 ),
"update": 0,
"values": [ Vector2( 0, 0 ), Vector2( -1, 0 ), Vector2( 1, 0 ), Vector2( -1, 0 ), Vector2( 0, 0 ) ]
}
tracks/1/type = "value"
tracks/1/path = NodePath("Sprite:scale")
tracks/1/interp = 1
tracks/1/loop_wrap = true
tracks/1/imported = false
tracks/1/enabled = true
tracks/1/keys = {
"times": PoolRealArray( 0, 0.2, 0.4 ),
"transitions": PoolRealArray( 1, 1, 1 ),
"update": 0,
"values": [ Vector2( 0.45, 0.45 ), Vector2( 0.5, 0.5 ), Vector2( 0.45, 0.45 ) ]
}
tracks/2/type = "value"
tracks/2/path = NodePath("Sprite:modulate")
tracks/2/interp = 1
tracks/2/loop_wrap = true
tracks/2/imported = false
tracks/2/enabled = false
tracks/2/keys = {
"times": PoolRealArray( 0, 0.2, 0.4 ),
"transitions": PoolRealArray( 1, 1, 1 ),
"update": 0,
"values": [ Color( 1, 1, 1, 1 ), Color( 3, 3, 3, 0.68 ), Color( 1, 1, 1, 1 ) ]
}
tracks/3/type = "value"
tracks/3/path = NodePath("AudioData:StartPlaying")
tracks/3/interp = 1
tracks/3/loop_wrap = true
tracks/3/imported = false
tracks/3/enabled = true
tracks/3/keys = {
"times": PoolRealArray( 0.1 ),
"transitions": PoolRealArray( 1 ),
"update": 1,
"values": [ true ]
}

[sub_resource type="Animation" id=3]
resource_name = "Spawning"
length = 3.0
tracks/0/type = "value"
tracks/0/path = NodePath("Sprite:scale")
tracks/0/interp = 1
tracks/0/loop_wrap = true
tracks/0/imported = false
tracks/0/enabled = true
tracks/0/keys = {
"times": PoolRealArray( 0, 1.5, 3 ),
"transitions": PoolRealArray( 1, 1, 1 ),
"update": 0,
"values": [ Vector2( 0.45, 0.45 ), Vector2( 0.5, 0.5 ), Vector2( 0.45, 0.45 ) ]
}
tracks/1/type = "value"
tracks/1/path = NodePath("Sprite:modulate")
tracks/1/interp = 1
tracks/1/loop_wrap = true
tracks/1/imported = false
tracks/1/enabled = false
tracks/1/keys = {
"times": PoolRealArray( 0, 1, 1.5, 2, 3 ),
"transitions": PoolRealArray( 1, 1, 1, 1, 1 ),
"update": 0,
"values": [ Color( 1, 1, 1, 1 ), Color( 1.5, 1.5, 1.5, 0.23 ), Color( 1, 1, 1, 1 ), Color( 1.5, 1.5, 1.5, 0.23 ), Color( 1, 1, 1, 1 ) ]
}

[node name="Checkpoint" type="Area2D"]
script = ExtResource( 2 )

[node name="Sprite" type="Sprite" parent="."]
scale = Vector2( 0.45, 0.45 )
texture = ExtResource( 1 )

[node name="CollisionShape2D" type="CollisionShape2D" parent="."]
visible = false
shape = SubResource( 1 )

[node name="Anim" type="AnimationPlayer" parent="."]
anims/Activated = SubResource( 2 )
anims/Spawning = SubResource( 3 )

[node name="Cooldown" type="Timer" parent="."]
one_shot = true

[node name="AudioData" parent="." instance=ExtResource( 3 )]
Streams = [ ExtResource( 4 ) ]
SoundParent = NodePath("..")

[connection signal="body_entered" from="." to="." method="OnCheckpointBodyEntered"]
